%YAML 1.1
%TAG !u! tag:unity3d.com,2011:
--- !u!21 &2100000
Material:
  serializedVersion: 6
  m_ObjectHideFlags: 0
  m_CorrespondingSourceObject: {fileID: 0}
  m_PrefabInstance: {fileID: 0}
  m_PrefabAsset: {fileID: 0}
  m_Name: M_Girl 1
  m_Shader: {fileID: 4800000, guid: c3b151c163bef40e1baa60d6d8326cc2, type: 3}
  m_ShaderKeywords: _NORMALMAP
  m_LightmapFlags: 4
  m_EnableInstancingVariants: 0
  m_DoubleSidedGI: 0
  m_CustomRenderQueue: -1
  stringTagMap: {}
  disabledShaderPasses: []
  m_SavedProperties:
    serializedVersion: 3
    m_TexEnvs:
    - _BumpMap:
        m_Texture: {fileID: 2800000, guid: c15c212e797186d479865ccb0df3cd57, type: 3}
        m_Scale: {x: 1, y: 1}
        m_Offset: {x: 0, y: 0}
    - _BumpTex:
        m_Texture: {fileID: 2800000, guid: 99cc87d67cbe2e0499045a144e1c6ba1, type: 3}
        m_Scale: {x: 1, y: 1}
        m_Offset: {x: 0, y: 0}
    - _DetailAlbedoMap:
        m_Texture: {fileID: 0}
        m_Scale: {x: 1, y: 1}
        m_Offset: {x: 0, y: 0}
    - _DetailMask:
        m_Texture: {fileID: 0}
        m_Scale: {x: 1, y: 1}
        m_Offset: {x: 0, y: 0}
    - _DetailNormalMap:
        m_Texture: {fileID: 0}
        m_Scale: {x: 1, y: 1}
        m_Offset: {x: 0, y: 0}
    - _EmissionMap:
        m_Texture: {fileID: 0}
        m_Scale: {x: 1, y: 1}
        m_Offset: {x: 0, y: 0}
    - _MainTex:
        m_Texture: {fileID: 2800000, guid: 0cbeccc4e4e212444a37065a702cd87e, type: 3}
        m_Scale: {x: 1, y: 1}
        m_Offset: {x: 0, y: 0}
    - _MetallicGlossMap:
        m_Texture: {fileID: 0}
        m_Scale: {x: 1, y: 1}
        m_Offset: {x: 0, y: 0}
    - _OcclusionMap:
        m_Texture: {fileID: 0}
        m_Scale: {x: 1, y: 1}
        m_Offset: {x: 0, y: 0}
    - _ParallaxMap:
        m_Texture: {fileID: 0}
        m_Scale: {x: 1, y: 1}
        m_Offset: {x: 0, y: 0}
    - _Ramp:
        m_Texture: {fileID: 2800000, guid: 7164ef8dffe0d48478896bfed874c377, type: 3}
        m_Scale: {x: 1, y: 1}
        m_Offset: {x: 0, y: 0}
    - _SurfaceDistortion:
        m_Texture: {fileID: 0}
        m_Scale: {x: 1, y: 1}
        m_Offset: {x: 0, y: 0}
    - _SurfaceNoise:
        m_Texture: {fileID: 0}
        m_Scale: {x: 1, y: 1}
        m_Offset: {x: 0, y: 0}
    - _ToonShade:
        m_Texture: {fileID: 8900000, guid: b995d4bd9d11078d11005b9844295342, type: 3}
        m_Scale: {x: 1, y: 1}
        m_Offset: {x: 0, y: 0}
    m_Floats:
    - _AmbientPower: 0
    - _BumpScale: 1
    - _Cutoff: 0.5
    - _DepthMaxDistance: 1
    - _DetailNormalMapScale: 1
    - _DstBlend: 0
    - _FoamMaxDistance: 0.4
    - _FoamMinDistance: 0.04
    - _GlossMapScale: 1
    - _Glossiness: 0.5
    - _GlossyReflections: 1
    - _GradientHeight: 10
    - _GradientYStartPos: 0
    - _LightmapPower: 0.5
    - _Metallic: 0
    - _Mode: 0
    - _OcclusionStrength: 1
    - _Outline: 0.1
    - _Parallax: 0.02
    - _RotationX: 0
    - _RotationY: 0
    - _RotationZ: 0
    - _ScaleX: 0
    - _ScaleY: 0
    - _ShadowPower: 0.25
    - _SmoothnessTextureChannel: 0
    - _SpecularHighlights: 1
    - _SpecularScale: 0.01
    - _SplitX: 0
    - _SplitY: 0
    - _SquareN: 1
    - _SquareScale: 0
    - _SrcBlend: 1
    - _SurfaceDistortionAmount: 0.27
    - _SurfaceNoiseCutoff: 0.777
    - _TranslationX: 0
    - _TranslationY: 0
    - _UVSec: 0
    - _ZWrite: 1
    m_Colors:
    - _AmbientColor: {r: 0.5, g: 0.5, b: 0.5, a: 0}
    - _BackBottomColor: {r: 0.2735849, g: 0.24132253, b: 0.24132253, a: 1}
    - _BackTopColor: {r: 1, g: 1, b: 1, a: 0}
    - _BottomColor: {r: 0.7735849, g: 0.7735849, b: 0.7735849, a: 1}
    - _Color: {r: 0.8018868, g: 0.8018868, b: 0.8018868, a: 1}
    - _DepthGradientDeep: {r: 0.086, g: 0.407, b: 1, a: 0.749}
    - _DepthGradientShallow: {r: 0.325, g: 0.807, b: 0.971, a: 0.725}
    - _EmissionColor: {r: 0, g: 0, b: 0, a: 1}
    - _FoamColor: {r: 1, g: 1, b: 1, a: 1}
    - _FrontBottomColor: {r: 1, g: 1, b: 1, a: 0}
    - _FrontTopColor: {r: 1, g: 1, b: 1, a: 0}
    - _LeftBottomColor: {r: 0.4056604, g: 0.22369462, b: 0.18560877, a: 1}
    - _LeftTopColor: {r: 0.6698113, g: 0.47361732, b: 0.42653075, a: 1}
    - _LightTint: {r: 1, g: 1, b: 1, a: 0}
    - _LightmapColor: {r: 0, g: 0, b: 0, a: 0}
    - _OutlineColor: {r: 0, g: 0, b: 0, a: 1}
    - _RightBottomColor: {r: 0.6698113, g: 0.47361732, b: 0.42653075, a: 1}
    - _RightTopColor: {r: 0.6698113, g: 0.47361732, b: 0.42653075, a: 1}
    - _Specular: {r: 1, g: 1, b: 1, a: 1}
    - _SurfaceNoiseScroll: {r: 0.03, g: 0.03, b: 0, a: 0}
    - _TopColor: {r: 0.5660378, g: 0.40024003, b: 0.36044857, a: 1}
