%YAML 1.1
%TAG !u! tag:unity3d.com,2011:
--- !u!21 &2100000
Material:
  serializedVersion: 6
  m_ObjectHideFlags: 0
  m_CorrespondingSourceObject: {fileID: 0}
  m_PrefabInstance: {fileID: 0}
  m_PrefabAsset: {fileID: 0}
  m_Name: M_Hair
  m_Shader: {fileID: 4800000, guid: 8491e2ffc72b80a43921343d508da2f1, type: 3}
  m_ShaderKeywords: _ _EMISSIVE_SIMPLE _OUTLINE_NML
  m_LightmapFlags: 4
  m_EnableInstancingVariants: 0
  m_DoubleSidedGI: 0
  m_CustomRenderQueue: -1
  stringTagMap: {}
  disabledShaderPasses: []
  m_SavedProperties:
    serializedVersion: 3
    m_TexEnvs:
    - _1st_ShadeMap:
        m_Texture: {fileID: 0}
        m_Scale: {x: 1, y: 1}
        m_Offset: {x: 0, y: 0}
    - _2nd_ShadeMap:
        m_Texture: {fileID: 0}
        m_Scale: {x: 1, y: 1}
        m_Offset: {x: 0, y: 0}
    - _BakedNormal:
        m_Texture: {fileID: 0}
        m_Scale: {x: 1, y: 1}
        m_Offset: {x: 0, y: 0}
    - _BaseMap:
        m_Texture: {fileID: 0}
        m_Scale: {x: 1, y: 1}
        m_Offset: {x: 0, y: 0}
    - _BumpMap:
        m_Texture: {fileID: 0}
        m_Scale: {x: 1, y: 1}
        m_Offset: {x: 0, y: 0}
    - _DetailAlbedoMap:
        m_Texture: {fileID: 0}
        m_Scale: {x: 1, y: 1}
        m_Offset: {x: 0, y: 0}
    - _DetailMask:
        m_Texture: {fileID: 0}
        m_Scale: {x: 1, y: 1}
        m_Offset: {x: 0, y: 0}
    - _DetailNormalMap:
        m_Texture: {fileID: 0}
        m_Scale: {x: 1, y: 1}
        m_Offset: {x: 0, y: 0}
    - _EmissionMap:
        m_Texture: {fileID: 0}
        m_Scale: {x: 1, y: 1}
        m_Offset: {x: 0, y: 0}
    - _Emissive_Tex:
        m_Texture: {fileID: 0}
        m_Scale: {x: 1, y: 1}
        m_Offset: {x: 0, y: 0}
    - _HighColor_Tex:
        m_Texture: {fileID: 0}
        m_Scale: {x: 1, y: 1}
        m_Offset: {x: 0, y: 0}
    - _MainTex:
        m_Texture: {fileID: 0}
        m_Scale: {x: 1, y: 1}
        m_Offset: {x: 0, y: 0}
    - _MainTexBase:
        m_Texture: {fileID: 0}
        m_Scale: {x: 1, y: 1}
        m_Offset: {x: 0, y: 0}
    - _MainTexture:
        m_Texture: {fileID: 0}
        m_Scale: {x: 1, y: 1}
        m_Offset: {x: 0, y: 0}
    - _Mask:
        m_Texture: {fileID: 0}
        m_Scale: {x: 1, y: 1}
        m_Offset: {x: 0, y: 0}
    - _MatCap_Sampler:
        m_Texture: {fileID: 0}
        m_Scale: {x: 1, y: 1}
        m_Offset: {x: 0, y: 0}
    - _MetallicGlossMap:
        m_Texture: {fileID: 0}
        m_Scale: {x: 1, y: 1}
        m_Offset: {x: 0, y: 0}
    - _Noise:
        m_Texture: {fileID: 0}
        m_Scale: {x: 1, y: 1}
        m_Offset: {x: 0, y: 0}
    - _NormalMap:
        m_Texture: {fileID: 0}
        m_Scale: {x: 1, y: 1}
        m_Offset: {x: 0, y: 0}
    - _NormalMapForMatCap:
        m_Texture: {fileID: 0}
        m_Scale: {x: 1, y: 1}
        m_Offset: {x: 0, y: 0}
    - _OcclusionMap:
        m_Texture: {fileID: 0}
        m_Scale: {x: 1, y: 1}
        m_Offset: {x: 0, y: 0}
    - _OutlineTex:
        m_Texture: {fileID: 0}
        m_Scale: {x: 1, y: 1}
        m_Offset: {x: 0, y: 0}
    - _Outline_Sampler:
        m_Texture: {fileID: 0}
        m_Scale: {x: 1, y: 1}
        m_Offset: {x: 0, y: 0}
    - _ParallaxMap:
        m_Texture: {fileID: 0}
        m_Scale: {x: 1, y: 1}
        m_Offset: {x: 0, y: 0}
    - _Ramp:
        m_Texture: {fileID: 0}
        m_Scale: {x: 1, y: 1}
        m_Offset: {x: 0, y: 0}
    - _Set_1st_ShadePosition:
        m_Texture: {fileID: 0}
        m_Scale: {x: 1, y: 1}
        m_Offset: {x: 0, y: 0}
    - _Set_2nd_ShadePosition:
        m_Texture: {fileID: 0}
        m_Scale: {x: 1, y: 1}
        m_Offset: {x: 0, y: 0}
    - _Set_HighColorMask:
        m_Texture: {fileID: 0}
        m_Scale: {x: 1, y: 1}
        m_Offset: {x: 0, y: 0}
    - _Set_MatcapMask:
        m_Texture: {fileID: 0}
        m_Scale: {x: 1, y: 1}
        m_Offset: {x: 0, y: 0}
    - _Set_RimLightMask:
        m_Texture: {fileID: 0}
        m_Scale: {x: 1, y: 1}
        m_Offset: {x: 0, y: 0}
    - _SparkleNoise:
        m_Texture: {fileID: 0}
        m_Scale: {x: 1, y: 1}
        m_Offset: {x: 0, y: 0}
    - _SpecGlossMap:
        m_Texture: {fileID: 0}
        m_Scale: {x: 1, y: 1}
        m_Offset: {x: 0, y: 0}
    - _TextureSample0:
        m_Texture: {fileID: 0}
        m_Scale: {x: 1, y: 1}
        m_Offset: {x: 0, y: 0}
    - _ToonShade:
        m_Texture: {fileID: 0}
        m_Scale: {x: 1, y: 1}
        m_Offset: {x: 0, y: 0}
    - _texcoord:
        m_Texture: {fileID: 0}
        m_Scale: {x: 1, y: 1}
        m_Offset: {x: 0, y: 0}
    m_Floats:
    - _1st2nd_Shades_Feather: 0.0001
    - _1st_ShadeColor_Feather: 0.0001
    - _1st_ShadeColor_Step: 0.5
    - _2nd_ShadeColor_Feather: 0.0001
    - _2nd_ShadeColor_Step: 0
    - _ALPHA: 0
    - _Add_Antipodean_RimLight: 0
    - _AmbientPower: 0
    - _Amount: 1
    - _Ap_RimLight_FeatherOff: 0
    - _Ap_RimLight_Power: 0.1
    - _BaseColor_Step: 0.5
    - _BaseShade_Feather: 0.0001
    - _Base_Speed: 0
    - _BlurLevelMatcap: 0
    - _BumpAmt: 10
    - _BumpScale: 1
    - _BumpScaleMatcap: 1
    - _CameraRolling_Stabilizer: 0
    - _ColorShift_Speed: 0
    - _CullMode: 0
    - _Cutoff: 0.5
    - _DetailNormalMapScale: 1
    - _DstBlend: 0
    - _EMISSIVE: 0
    - _Edgewidth: 0.1
    - _Farthest_Distance: 100
    - _GI_Intensity: 0
    - _GlossMapScale: 1
    - _Glossiness: 0.5
    - _GlossyReflections: 1
    - _GradientHeight: 10
    - _GradientYStartPos: -17
    - _HighColor_Power: 0
    - _Inverse_MatcapMask: 0
    - _Inverse_Z_Axis_BLD: 1
    - _Is_BLD: 0
    - _Is_BakedNormal: 0
    - _Is_BlendAddToHiColor: 0
    - _Is_BlendAddToMatCap: 1
    - _Is_BlendBaseColor: 0
    - _Is_ColorShift: 0
    - _Is_Filter_HiCutPointLightColor: 1
    - _Is_Filter_LightColor: 0
    - _Is_LightColor_1st_Shade: 1
    - _Is_LightColor_2nd_Shade: 1
    - _Is_LightColor_Ap_RimLight: 1
    - _Is_LightColor_Base: 1
    - _Is_LightColor_HighColor: 1
    - _Is_LightColor_MatCap: 1
    - _Is_LightColor_Outline: 1
    - _Is_LightColor_RimLight: 1
    - _Is_NormalMapForMatCap: 0
    - _Is_NormalMapToBase: 0
    - _Is_NormalMapToHighColor: 0
    - _Is_NormalMapToRimLight: 0
    - _Is_Ortho: 0
    - _Is_OutlineTex: 0
    - _Is_PingPong_Base: 0
    - _Is_SpecularToHighColor: 0
    - _Is_UseTweakHighColorOnShadow: 0
    - _Is_UseTweakMatCapOnShadow: 0
    - _Is_ViewCoord_Scroll: 0
    - _Is_ViewShift: 0
    - _LightDirection_MaskOn: 0
    - _LightmapPower: 0
    - _MatCap: 0
    - _MaxTessDistance: 50
    - _Metallic: 0
    - _Mode: 0
    - _Nearest_Distance: 0.5
    - _NoiseScale: 0.1
    - _NoiseWeight: 0.1
    - _OUTLINE: 0
    - _OcclusionStrength: 1
    - _Offset: 3.2
    - _Offset_X_Axis_BLD: -0.05
    - _Offset_Y_Axis_BLD: 0.09
    - _Offset_Z: 0
    - _Outline: 0.1
    - _Outline_Width: 0
    - _Parallax: 0.02
    - _RimBrightness: 3.2
    - _RimLight: 0
    - _RimLight_FeatherOff: 0
    - _RimLight_InsideMask: 0.0001
    - _RimLight_Power: 0.1
    - _RimPower: 20
    - _Rotate_EmissiveUV: 0
    - _Rotate_MatCapUV: 0
    - _Rotate_NormalMapForMatCapUV: 0
    - _RotationX: 0
    - _RotationY: 0
    - _RotationZ: 0
    - _Scale: 1
    - _ScaleX: 0
    - _ScaleY: 0
    - _Scroll_EmissiveU: 0
    - _Scroll_EmissiveV: 0
    - _Set_SystemShadowsToBase: 1
    - _ShadeColor_Step: 0
    - _ShadowPower: 1
    - _SmoothnessTextureChannel: 0
    - _SnowDepth: 0.3
    - _SnowHeight: 0.3
    - _SnowTextureOpacity: 0.3
    - _SnowTextureScale: 0.3
    - _SparkCutoff: 0.1
    - _SparkleScale: 10
    - _SpecularHighlights: 1
    - _SpecularScale: 0.01
    - _SplitX: 0
    - _SplitY: 0
    - _SquareN: 1
    - _SquareScale: 0
    - _SrcBlend: 1
    - _StepOffset: 0
    - _Tess: 20
    - _TranslationX: 0
    - _TranslationY: 0
    - _TweakHighColorOnShadow: 0
    - _TweakMatCapOnShadow: 0
    - _Tweak_HighColorMaskLevel: 0
    - _Tweak_LightDirection_MaskLevel: 0
    - _Tweak_MatCapUV: 0
    - _Tweak_MatcapMaskLevel: 0
    - _Tweak_RimLightMaskLevel: 0
    - _Tweak_SystemShadowsLevel: 0
    - _UVSec: 0
    - _Unlit_Intensity: 1
    - _Use_1stAs2nd: 0
    - _Use_BaseAs1st: 0
    - _Wave: 0
    - _WindSpeed: 0
    - _ZWrite: 1
    - __dirty: 1
    - _simpleUI: 0
    - _utsTechnique: 0
    - _utsVersion: 2.07
    m_Colors:
    - _1st_ShadeColor: {r: 0.7607844, g: 0.7607844, b: 0.7607844, a: 1}
    - _2nd_ShadeColor: {r: 1, g: 1, b: 1, a: 1}
    - _AmbientColor: {r: 1, g: 1, b: 1, a: 0}
    - _Ap_RimLightColor: {r: 1, g: 1, b: 1, a: 1}
    - _BackBottomColor: {r: 0.2264151, g: 0.14459284, b: 0.124955505, a: 1}
    - _BackTopColor: {r: 0.16981131, g: 0.025971143, b: 0, a: 1}
    - _BaseColor: {r: 0.31132078, g: 0.25117928, b: 0.23349059, a: 1}
    - _BottomColor: {r: 0.103773594, g: 0.07469341, b: 0.06901923, a: 1}
    - _Color: {r: 0.5566038, g: 0.39356935, b: 0.35444108, a: 1}
    - _ColorShift: {r: 0, g: 0, b: 0, a: 1}
    - _ColorTint: {r: 0, g: 0, b: 0, a: 0}
    - _EdgeColor: {r: 0.5, g: 0.5, b: 0.5, a: 1}
    - _EmissionColor: {r: 0, g: 0, b: 0, a: 1}
    - _Emissive_Color: {r: 0, g: 0, b: 0, a: 1}
    - _FrontBottomColor: {r: 0.254717, g: 0.2178516, b: 0.21026167, a: 1}
    - _FrontTopColor: {r: 0.14150941, g: 0.107917614, b: 0.10079208, a: 1}
    - _HighColor: {r: 0, g: 0, b: 0, a: 1}
    - _LeftBottomColor: {r: 0.31132078, g: 0.2885591, b: 0.2834194, a: 1}
    - _LeftTopColor: {r: 0.2735849, g: 0.2163452, b: 0.20260769, a: 1}
    - _LightTint: {r: 1, g: 1, b: 1, a: 0.28627452}
    - _LightmapColor: {r: 1, g: 1, b: 1, a: 0}
    - _MatCapColor: {r: 1, g: 1, b: 1, a: 1}
    - _OutlineColor: {r: 0, g: 0, b: 0, a: 1}
    - _Outline_Color: {r: 0.5, g: 0.5, b: 0.5, a: 1}
    - _PathColor: {r: 0.5, g: 0.5, b: 0.7, a: 1}
    - _RightBottomColor: {r: 0.38679248, g: 0.26172644, b: 0.23171058, a: 1}
    - _RightTopColor: {r: 0.16981131, g: 0.1291155, b: 0.11934852, a: 1}
    - _RimColor: {r: 0.5, g: 0.5, b: 0.5, a: 1}
    - _RimLightColor: {r: 1, g: 1, b: 1, a: 1}
    - _SpecColor: {r: 0.19999996, g: 0.19999996, b: 0.19999996, a: 1}
    - _Specular: {r: 1, g: 1, b: 1, a: 1}
    - _TColor: {r: 0.49, g: 0.94, b: 0.6399999, a: 1}
    - _ToonRamp: {r: 0.5, g: 0.5, b: 0.5, a: 1}
    - _TopColor: {r: 0.4339623, g: 0.31509718, b: 0.2845319, a: 1}
    - _ViewShift: {r: 0, g: 0, b: 0, a: 1}
