%YAML 1.1
%TAG !u! tag:unity3d.com,2011:
--- !u!21 &2100000
Material:
  serializedVersion: 6
  m_ObjectHideFlags: 0
  m_CorrespondingSourceObject: {fileID: 0}
  m_PrefabInstance: {fileID: 0}
  m_PrefabAsset: {fileID: 0}
  m_Name: Skybox_Horizontal Skybox
  m_Shader: {fileID: 4800000, guid: c4d18cbad9e484771bc509c0d9d033c7, type: 3}
  m_ShaderKeywords: 
  m_LightmapFlags: 4
  m_EnableInstancingVariants: 0
  m_DoubleSidedGI: 0
  m_CustomRenderQueue: -1
  stringTagMap: {}
  disabledShaderPasses: []
  m_SavedProperties:
    serializedVersion: 3
    m_TexEnvs: []
    m_Floats:
    - _Exponent1: 1
    - _Exponent2: 1
    - _Intensity: 1
    m_Colors:
    - _Color1: {r: 0.08530616, g: 0.45417297, b: 0.6698113, a: 0}
    - _Color2: {r: 0.5159309, g: 0.5849056, b: 0.5835685, a: 0}
    - _Color3: {r: 0.46564615, g: 0.8415199, b: 0.9056604, a: 0}
