%YAML 1.1
%TAG !u! tag:unity3d.com,2011:
--- !u!21 &2100000
Material:
  serializedVersion: 6
  m_ObjectHideFlags: 0
  m_CorrespondingSourceObject: {fileID: 0}
  m_PrefabInstance: {fileID: 0}
  m_PrefabAsset: {fileID: 0}
  m_Name: x
  m_Shader: {fileID: 4800000, guid: 58d5109ca31838346aa35de1a7954bbe, type: 3}
  m_ShaderKeywords: 
  m_LightmapFlags: 4
  m_EnableInstancingVariants: 0
  m_DoubleSidedGI: 0
  m_CustomRenderQueue: -1
  stringTagMap: {}
  disabledShaderPasses: []
  m_SavedProperties:
    serializedVersion: 3
    m_TexEnvs:
    - _BumpMap:
        m_Texture: {fileID: 2800000, guid: a000afa3351d00e4296fdb5c838eb4ac, type: 3}
        m_Scale: {x: 1, y: 1}
        m_Offset: {x: 0, y: 0}
    - _DetailAlbedoMap:
        m_Texture: {fileID: 0}
        m_Scale: {x: 1, y: 1}
        m_Offset: {x: 0, y: 0}
    - _DetailMask:
        m_Texture: {fileID: 0}
        m_Scale: {x: 1, y: 1}
        m_Offset: {x: 0, y: 0}
    - _DetailNormalMap:
        m_Texture: {fileID: 0}
        m_Scale: {x: 1, y: 1}
        m_Offset: {x: 0, y: 0}
    - _EmissionMap:
        m_Texture: {fileID: 0}
        m_Scale: {x: 1, y: 1}
        m_Offset: {x: 0, y: 0}
    - _IrTex:
        m_Texture: {fileID: 2800000, guid: 4e87cfc3cdb6ee84aaa39b63abae7e67, type: 3}
        m_Scale: {x: 1, y: 1}
        m_Offset: {x: 0, y: 0}
    - _MainTex:
        m_Texture: {fileID: 2800000, guid: db1881cd45d68c848b351fc300ebda50, type: 3}
        m_Scale: {x: 1, y: 1}
        m_Offset: {x: 0, y: 0}
    - _MainTexBase:
        m_Texture: {fileID: 2800000, guid: db1881cd45d68c848b351fc300ebda50, type: 3}
        m_Scale: {x: 1, y: 1}
        m_Offset: {x: 0, y: 0}
    - _MainTexSide:
        m_Texture: {fileID: 2800000, guid: 4235ec7b6486dcf42bb3d4b717fe0694, type: 3}
        m_Scale: {x: 1, y: 1}
        m_Offset: {x: 0, y: 0}
    - _Mask:
        m_Texture: {fileID: 2800000, guid: e88c6e72f5670d34ea14ffb9ca0e7598, type: 3}
        m_Scale: {x: 1, y: 1}
        m_Offset: {x: 0, y: 0}
    - _MetallicGlossMap:
        m_Texture: {fileID: 0}
        m_Scale: {x: 1, y: 1}
        m_Offset: {x: 0, y: 0}
    - _Noise:
        m_Texture: {fileID: 2800000, guid: 50f5bfbaf5f024c409813bdac16a6237, type: 3}
        m_Scale: {x: 1, y: 1}
        m_Offset: {x: 0, y: 0}
    - _Normal:
        m_Texture: {fileID: 2800000, guid: a000afa3351d00e4296fdb5c838eb4ac, type: 3}
        m_Scale: {x: 1, y: 1}
        m_Offset: {x: 0, y: 0}
    - _OcclusionMap:
        m_Texture: {fileID: 0}
        m_Scale: {x: 1, y: 1}
        m_Offset: {x: 0, y: 0}
    - _ParallaxMap:
        m_Texture: {fileID: 0}
        m_Scale: {x: 1, y: 1}
        m_Offset: {x: 0, y: 0}
    - _Ramp:
        m_Texture: {fileID: 2800000, guid: d440902fad11e807d00044888d76c639, type: 3}
        m_Scale: {x: 1, y: 1}
        m_Offset: {x: 0, y: 0}
    - _SparkleNoise:
        m_Texture: {fileID: 0}
        m_Scale: {x: 1, y: 1}
        m_Offset: {x: 0, y: 0}
    m_Floats:
    - _Antialiasing: 5
    - _Brightness: 2
    - _BumpScale: 1
    - _Cutoff: 0.5
    - _DetailNormalMapScale: 1
    - _DstBlend: 0
    - _EdgeWidth: 1
    - _Edgewidth: 0.1
    - _Fresnel: 0.5
    - _GlossMapScale: 1
    - _Glossiness: 0.5
    - _GlossyReflections: 1
    - _LM: 0
    - _LM2: 0
    - _MaxTessDistance: 100
    - _Metallic: 0
    - _Mode: 0
    - _NoiseScale: 0
    - _NoiseWeight: 0
    - _OcclusionStrength: 1
    - _Offset: 0.07
    - _OutlineSize: 0.01
    - _Parallax: 0.02
    - _RimPower: 20
    - _Scale: 1
    - _SideScale: 1
    - _SmoothnessTextureChannel: 0
    - _SnowDepth: 0.3
    - _SnowHeight: 0.3
    - _SnowTextureOpacity: 0.3
    - _SnowTextureScale: 0.3
    - _SparkCutoff: 0.1
    - _SparkleScale: 10
    - _SpecularHighlights: 1
    - _SrcBlend: 1
    - _Tess: 20
    - _TopSpread: 1
    - _UVSec: 0
    - _Value: 1
    - _Value2: 2
    - _WorldScale: 1.72
    - _ZWrite: 1
    m_Colors:
    - _BaseColor: {r: 0.5, g: 0.5, b: 0.5, a: 1}
    - _Color: {r: 0.2924528, g: 0.2924528, b: 0.2924528, a: 1}
    - _EdgeColor: {r: 0.5, g: 0.5, b: 0.5, a: 1}
    - _EmissionColor: {r: 0, g: 0, b: 0, a: 1}
    - _IrColor: {r: 0.5, g: 0.5, b: 0.5, a: 1}
    - _OutlineColor: {r: 0, g: 0, b: 0, a: 1}
    - _PathColor: {r: 0.5, g: 0.5, b: 0.7, a: 1}
    - _RimColor: {r: 0.5, g: 0.5, b: 0.5, a: 1}
    - _RimColor2: {r: 0.5, g: 0.5, b: 0.5, a: 1}
    - _ToonRamp: {r: 0.5, g: 0.5, b: 0.5, a: 1}
