%YAML 1.1
%TAG !u! tag:unity3d.com,2011:
--- !u!21 &2100000
Material:
  serializedVersion: 6
  m_ObjectHideFlags: 0
  m_CorrespondingSourceObject: {fileID: 0}
  m_PrefabInstance: {fileID: 0}
  m_PrefabAsset: {fileID: 0}
  m_Name: Snow Full Reflective
  m_Shader: {fileID: 4800000, guid: d80bb91f127320e4897a75399472943e, type: 3}
  m_ShaderKeywords: 
  m_LightmapFlags: 4
  m_EnableInstancingVariants: 0
  m_DoubleSidedGI: 0
  m_CustomRenderQueue: -1
  stringTagMap: {}
  disabledShaderPasses: []
  m_SavedProperties:
    serializedVersion: 3
    m_TexEnvs:
    - _BumpMap:
        m_Texture: {fileID: 2800000, guid: 27aec5e23442e854393a614f079b974f, type: 3}
        m_Scale: {x: 1, y: 1}
        m_Offset: {x: 0, y: 0}
    - _BumpTex:
        m_Texture: {fileID: 2800000, guid: 27aec5e23442e854393a614f079b974f, type: 3}
        m_Scale: {x: 6, y: 4}
        m_Offset: {x: 0, y: 0}
    - _Cube:
        m_Texture: {fileID: 8900000, guid: 2c3b0b4f305333f45967a3bb656190bd, type: 3}
        m_Scale: {x: 1, y: 1}
        m_Offset: {x: 0, y: 0}
    - _DepthTex:
        m_Texture: {fileID: 2800000, guid: 8ee588acc32531d4fa3df24a15a778c7, type: 3}
        m_Scale: {x: 1, y: 1}
        m_Offset: {x: 0, y: 0}
    - _GlitterMap:
        m_Texture: {fileID: 2800000, guid: 284dd42c7c4f89a42aee1d21c7fccc31, type: 3}
        m_Scale: {x: 1, y: 1}
        m_Offset: {x: 0, y: 0}
    - _GlitterTex:
        m_Texture: {fileID: 2800000, guid: 284dd42c7c4f89a42aee1d21c7fccc31, type: 3}
        m_Scale: {x: 3, y: 2}
        m_Offset: {x: 0, y: 0}
    - _MainTex:
        m_Texture: {fileID: 0}
        m_Scale: {x: 3, y: 2}
        m_Offset: {x: 0, y: 0}
    - _Ramp:
        m_Texture: {fileID: 2800000, guid: 7fec3cfa95f7cb041923abd566c76e9d, type: 3}
        m_Scale: {x: 1, y: 1}
        m_Offset: {x: 0, y: 0}
    - _SubMap:
        m_Texture: {fileID: 0}
        m_Scale: {x: 1, y: 1}
        m_Offset: {x: 0, y: 0}
    - _SubNormal:
        m_Texture: {fileID: 0}
        m_Scale: {x: 1, y: 1}
        m_Offset: {x: 0, y: 0}
    m_Floats:
    - _Aniso: 0.55906594
    - _Coverage: 0.5
    - _Depth: 0.08928572
    - _Falloff: 0.76
    - _Glitter: 3.2142856
    - _RampPower: 1
    - _Reflection: 0.19642857
    - _Shininess: 0.055557743
    - _Smooth: 0.5
    - _Specular: 3.482143
    - _Spread: 1
    - _Transition: 0.5
    - _TransitionSmooth: 0.5
    m_Colors:
    - _Color: {r: 1, g: 1, b: 1, a: 1}
    - _Direction: {r: 0, g: 1, b: 0, a: 1}
